Warning - class CORE ANTENNACELL is not found. This message can be ignored if not in the antenna-avoid flow
Number of pins violated: 0
Number of nets violated: 0
Total number of unspecial nets: 378585
